{
  "dependencies": {
    "Microsoft.NETCore.App": {
      "version": "1.0.1",
      "type": "platform"
    },
    "Microsoft.AspNetCore.Mvc": "1.0.1",
    "Microsoft.AspNetCore.Routing": "1.0.1",
    "Microsoft.AspNetCore.Server.IISIntegration": "1.0.0",
    "Microsoft.AspNetCore.Server.Kestrel": "1.0.1",
    "Microsoft.Extensions.Configuration.EnvironmentVariables": "1.0.0",
    "Microsoft.Extensions.Configuration.FileExtensions": "1.0.0",
    "Microsoft.Extensions.Configuration.Json": "1.0.0",
    "Microsoft.Extensions.Logging": "1.0.0",
    "Microsoft.Extensions.Logging.Console": "1.0.0",
    "Microsoft.Extensions.Logging.Debug": "1.0.0",
    "Microsoft.Extensions.Options.ConfigurationExtensions": "1.0.0",
    "Microsoft.AspNetCore.Diagnostics": "1.0.0",
    "BBT.Tapco.Prototype.StoryTracker.Domain": "1.0.0-*",
    "BBT.Tapco.Prototype.StoryTracker.ApplicationServices": "1.0.0-*",
    "BBT.Tapco.Prototype.StoryTracker.Api.Common": "1.0.0-*",
    "BBT.Tapco.Prototype.StoryTracker.Infrastructure.Mappers": "1.0.0-*",
    "BBT.Tapco.Prototype.StoryTracker.Infrastructure.Validation": "1.0.0-*",
    "BBT.Tapco.Prototype.StoryTracker.Infrastructure.DataAccess": "1.0.0-*",
    "Autofac": "4.2.1",
    "Autofac.Extensions.DependencyInjection": "4.0.0",
    "System.Data.SqlClient": "4.3.0",
    "NLog.Extensions.Logging": "1.0.0-rtm-alpha5"
  },

  "tools": {
    "Microsoft.AspNetCore.Server.IISIntegration.Tools": "1.0.0-preview2-final"
  },

  "frameworks": {
    "netcoreapp1.0": {
      "imports": [
        "dotnet5.6",
        "portable-net45+win8"
      ]
    }
  },

  "buildOptions": {
    "emitEntryPoint": true,
    "preserveCompilationContext": true
  },

  "runtimeOptions": {
    "configProperties": {
      "System.GC.Server": true
    }
  },

  "publishOptions": {
    "include": [
      "wwwroot",
      "**/*.cshtml",
      "appsettings.json",
      "web.config",
      "nlog.config"
    ]
  },

  "scripts": {
    "postpublish": [ "dotnet publish-iis --publish-folder %publish:OutputPath% --framework %publish:FullTargetFramework%" ]
  }
}
